{
  "deepsubject" : {
    "en" : {
      "elements": {
        
        "header": [
          {
            "links": [
              { "home": "/" }
              , { "pop-culture": "/pop-culture.html" }
              , { "personal-experience": "/personal-experience.html" }
            ]
          }
        ]

        , "content": {
          
          "list": {
            "header_two": "Things I would want my child to think about seriously"
            , "detail": [
              {
                "name": "Jesus"
                , "qualifier": "My Savior"
                , "minutae": ["The Lord represents the narrow way least travelled.", "The Lord carries the spirit of truth and not the spirit of the world.", "The Lord lived the only life worth imitating for eternal salvation."]
                , "blip": "The Lord is alive! He has the name above all names!"
                , "headline": "The God of the universe-- God, the father --is a living God."
                , "photo": "/img/landscape/alive.jpg"
              }
              , {
                "name": "Healing"
                , "qualifier": "Through Faith"
                , "minutae": ["The woman suffered an incurable sickness.", "She sought to touch the hem of His garment.", "Christ felt his power go out of him.", "The Lord told her, \"Go. Your faith has healed you!\""]
                , "blip": "The Son of Man is holier than the garment."
                , "headline": "The story in short."
                , "photo": "/img/landscape/faith.jpg"
              }
              , {
                "name": "Keeping oil in our lamps"
                , "minutae": ["The parable describes 10 virgins- 5 are foolish, 5 are wise...", "\"The groom\" will inevitably return for his bride.", "We must always be ready unlike the five foolish virgins because \"the groom\" could show up at any time."]
                , "blip": "We have to strive to be considered worthy."
                , "headline": "What does this mean?"
                , "photo": "/img/landscape/oil-in-lamp.jpg"
              }
              , {
                "name": "Love"
                , "qualifier": "The greatest power of all"
                , "minutae": [ "God loved the world so much that he sent us his only son.", "I do not need permission from anybody to perform random acts of kindness and love.", "To give ones life for the sake of another is the greatest act of love.", "Read 1 Corinthians 13 if you have never done so." , "Even Jimi Hendrix had some thoughts about the power of love that can easily be found on the internet today."]
                , "blip": "It is not just an emotion."
                , "headline": "Something worth imitating."
                , "photo": "/img/landscape/love.jpg"
              }
              , {
                "name": "Cleaning the silver of any dross"
                , "minutae": ["It is said that the family that prays together stays together.", "The dross represents sin and unclean things in our lives.", "We are each unique treasures to God but we are born into a fallen world.", "We must strive to do good in everything we do." ]
                , "blip": "It's not by my own strength but by the Holy Spirit."
                , "headline": "It can be a time-consuming process."
                , "photo": "/img/landscape/refining-silver.jpg"
              }
              , {
                "name": "Believe the truth"
                , "minutae": ["Glaciers and ice-caps are disappearing.", "Animals around the world are dying off at an alarming pace.", "God's creation all around us is being destroyed with each passing day."]
                , "blip": "The truth of the world is different than the truth of God."
                , "headline": "How much more can you deny what is happening around you?"
                , "photo": "/img/landscape/el-nino.jpg"
              }
              , {
                "name": "Disasters"
                , "qualifier": "Happening in slow motion"
                , "minutae": ["Volcanoes, sinkholes, famine, pestilence, disease..." , "Tsunamis, earthquakes, monsoons, fires..."]
                , "blip": "Who needs Netflix..."
                , "headline": "...when you have real-life disasters unfolding all around you?"
                , "photo": "/img/landscape/volcano.jpg"
              }
              , {
                "name": "Plagues"
                , "qualifier": "Heaped suddenly upon us"
                , "minutae": [ "The Father uses it to bestow blessings upon us.", "The Father uses the weather for his glory.", "The Father uses the weather for correction." , "Clearly, He is using the weather to repeatedly warn us and to correct us." ]
                , "blip": "Here one day and gone the next... Or, have you not noticed?"
                , "headline": "God uses the weather for at least three purposes:"
                , "photo": "/img/landscape/hurricane.jpg"
              }
              , {
                "name": "The Spirit of Cain"
                , "minutae": [ "The Book of Proverbs 6:12-15 declares, 'Let me describe for you a worthless and a wicked man; first, he is a constant liar; he signals his true intentions to his friends with eyes and feet and fingers. Next, his heart is full of rebellion. And, he spends his time thinking of all the evil he can do, and stirring up discontent. But he will be destroyed suddenly, broken beyond hope of healing.' ", "The M.O. of those that carry this evil spirit consists of attacking the children of God. This includes murderers... liars... thieves... revilers (haters of things that are good and complainers who like to 'stir the pot' for attention)... manipulators (includes dog-whistlers & gas-lighters)... enablers (those that do not stand against and rebuke that which is wrong)...", "Ephesians 5:11 obligates us to 'Take no part in the unfruitful works of darkness, but instead expose them.'", "The adversary has already lost as it has been foretold in the Book of The Revelation. And, these lost souls are not going to like the bill when the devil hands them the check!", "Some 'bad apples' in this world (particularly politicians, business leaders & other Ayn Rand disciples who believe in the ends justifying the means)  tolerate oppression of those who cannot defend themselves because they benefit from it, too. Presently-- one in particular --is too eager to put up a smokescreen consisting of diffidence, reluctance, and the usual passivistic response in the form of 'it's not my fault.' By enabling evil, these tacit acts of approval for the perpetuation of these bad things by these 'bad apples' have the unfortunate effect of signaling other provocateurs that, for example, it is okay to be a racist because they believe [he's] on their side after they had every opportunity to push back but decided not to do so for selfish motives." ]
                , "blip": "1 Corinthians 6:10 clearly states 'Nor thieves, nor the greedy, nor drunkards, nor revilers, nor swindlers will inherit the kingdom of God.'"
                , "headline": "It is time to turn away from evil."
                , "photo": "/img/landscape/spirit-of-cain.jpg"
              }
              , {
                "name": "War"
                , "minutae": ["Too much innocent blood is being spilt around the world and it has to stop!", "God will not allow corruption into his kingdom because he is just and fair and true."]
                , "blip": "People are all too ready to partake in corruption."
                , "headline": "Put down your arms and seek forgiveness."
                , "photo": "/img/landscape/rumors-of-wars.jpg"
              }
              , {
                "name": "Look for solid ground"
                , "minutae": [ "Seek the face of God, in the name of Christ Jesus, through the Holy Spirit.", "Don't be swept away by other currents or doctrines for that matter." ]
                , "blip": "Build your faith on solid rock."
                , "headline": "Christ does not disappoint."
                , "photo": "/img/landscape/shaky-ground.jpg"
              }
              , {
                "name": "Break the chains"
                , "qualifier": "Of sin"
                , "minutae": [ "You need to have a dialogue with the Living God.", "For some it takes sickness to bring about change on a personal level.", "For others it takes a NDE (near death experience) in order to see the light.", "I asked the Lord to take things away from my life. He'd often start with the smaller things before moving on to the bigger things in order to test my mettle." ]
                , "blip": "Time is running out!"
                , "headline": "Christ changed me in areas where I failed previously on so many other occasions."
                , "photo": "/img/landscape/chains.jpg"
              }
              , {
                "name": "The Father returns"
                , "minutae": ["'The eleventh commandment' was stated by Jesus Christ in front of the Sadducees, the Jewish religious teachers of his time. It was documented according to the Gospel According to Mark 12:31 where the Lord taught us that 'You must love others as much as yourself.'", "I ask the Holy Spirit in prayer to turn the hearts of the lost.", "Heaven will be paradise in the presence of God where there is no more corruption or tears or sadness!" , "I can finally be in the company of God as he had originally intended before Satan tempted Eve (in the Garden of Eden) who, in turn, then caused Adam to disobey God.", "I want to implore you, my brothers and sisters to not wait another day-- get right with God now!" ]
                , "blip": "Can you afford to be wrong?"
                , "headline": "Love your neighbor and help one another!"
                , "photo": "/img/landscape/christ-returns.jpg"
              }
            ]
          }

          , "picture": {
            "list": {
              "header_two": "Pop-culture: Superficial themes"
              , "detail": [
                {
                  "firstlead": "Among the fictional works that I have enjoyed have included \"Star Wars\" ever since I was a youngster growing up in the 70s. Among the recurrent themes or literary archetypal patterns found in the space saga, is the element of 'trusting in the force.' While drawing a distinction between fiction and faith, some parallels can still be drawn from the former."

                  , "secondfigure": {
                    "imgsrcsecond": "/img/picture/believe-500_small.jpg"
                    , "srcset1": "/img/picture/believe-1600_large.jpg" 
                    , "srcset2second": "/img/picture/believe-1000_large.jpg" 
                    , "srcset3": "/img/picture/believe-800_medium.jpg" 
                    , "alttextsecond": "Still image of Luke Skywalker from The Empire Strikes Back"
                    , "captionsecond": "Yoda showed his pupil Luke that the reason why he failed was because he did not believe."
                  }

                  , "thirdparagraph": "<blockquote class='comparison'>\"Afterwards the disciples asked Jesus privately, 'Why couldn't we cast that demon out?' Jesus replied, 'Because of your little faith. For if you had the faith even as small as a tiny mustard seed you could say to this mountain, \"Move!\" and it would go far away. Nothing would be impossible. But this kind of demon won't leave unless you have prayed and gone without food.'\" <cite> --Gospel of Matthew 17:19-21</cite></blockquote> <blockquote class='comparison'>\"Jesus said, 'When you make the two one, you will become the sons of man, and when you say, 'Mountain, move away,' it will move away.'\"<cite> --Gospel of Thomas (106)</cite></blockquote>"
                  
                  , "fourthlead": "Among the fictional works that I enjoy today, my favorite by far is \"One Piece.\" There are recurrent themes of 'friendship,' 'being strong willed', and a mysterious ability 'hear the voice of all things.' While not confusing fiction with faith, some lessons in pop-culture take their cues from concepts found in faith-based beliefs, too."
                  
                  , "fifthfigure": {
                    "srcset1a" : "/img/picture/voice-1600_large.jpg"
                    , "srcset1b": "/img/picture/voice-1000_large.jpg"
                    , "srcset2fifth": "/img/picture/voice-800_medium.jpg"
                    , "imgsrcfifth": "/img/picture/voice-500_small.jpg"
                    , "alttextfifth": "Still image of Gol D. Roger from One Piece anime manga"
                    , "captionfifth": "Roger died with a smile because of inner peace, plus, he had the ability to hear the voice of all things."
                  }

                  , "sixthfinalparagraph": "<blockquote class='comparison'>\"My sheep recognize my voice, and I know them, and they follow me. I give them eternal life and they shall never perish. No one shall snatch them away from me, for my Father has given them to me, and he is more powerful than anyone else, so no one can kidnap them from me. I and the Father are one.\" <cite> --Gospel of John 10:27-30 </cite></blockquote> <blockquote class='comparison'>\"Jesus said, 'It is I who am the light which is above them all. It is I who am the all. From me did the all come forth, and unto me did the all extend. Split a piece of wood, and I am there. Lift up the stone, and you will find me there.'\" <cite> --Gospel of Thomas (77)</cite></blockquote>"
                }
              ]
            }
          }
  
          , "tabs": {
            "list": {
              "header_two": "Personal experience"
              , "detail": [
                {
                  "idvalue": "tab-1"
                  , "label": "My World"
                  , "content": "There is a saying that states that if the world rejects you, then, the Lord will accept you. I truly believe this precept. I pray to the Lord Almighty each morning and each evening. My thoughts dwell on how I can serve him daily. I am grateful for all of his blessings knowing that I like anybody else is on borrowed time. I have read the Holy Bible three (3) times in the past ten years and I am currently repeating it for a fourth time. All things on this earth are for his glory."
                }
                , {
                  "idvalue": "tab-2"
                  , "label": "Rebirth"
                  , "content": "I have come out of this world. When I was lost, I was another person. My personal tastes are different, plus, my definition of success is different to how I defined it one year ago, five years ago, and even fifteen years ago. Without the Lord, I am small. Without Him, I am nothing. Without his love and protection, I am like a cloud without rain ...or, like a fig tree that bears no fruit. I have a ministry to keep. I do not impose my faith on others but I will share my own experience whenever I am given an opportunity to do so. In short, I have gotten back to my roots and accepted what I have always known in my heart."
                }
                , {
                  "idvalue": "tab-3"
                  , "label": "Education"
                  , "content": "Currently, my lessons are not limited to the Old Testament and New Testament. To even my own surprise, I find a lot from which to draw from some of the Apocryphal texts (texts that were unearthed along with archaeological find known as the \"Dead Sea Scrolls\"). A lot of these additional texts can be found in audio, video, and pdf formats on the internet. When I am not coding and I am performing chores around the house, I like to listen to the Gospel of Thomas, the Gospel of Philip, the Book of Enoch, or the Book of Jasher. The additional Gospels have a lot of overlap with the four mainstream Gospels-- Matthew, Mark, Luke and John --and in my heart I have no doubt at all that these 'additional texts' are the words of my Lord, Christ Jesus. The first Book of Enoch deals how this world fell subsequent to the events that took place in the Garden of Eden. And, the Book of Jasher is the largest of the new texts (I have not absorbed it all yet) that I have seen but it is invaluable and it fills in a lot of the conspicuous gaps that are in the Old Testament. My recommendation is that you read the Old Testament first before you try and take in the words found in the Book of Jasher."
                }
              ]
            }
          }

        }

        , "footer": [
          {
            "authoredBy": "Made in Costa Rica by Luis Artavia"
            , "acConsole": "An update is ready!"
            , "dwnldACValue": "Download!"
            , "clearSWConsole": "Clear!"
          }
        ]

      }
    }
  }
}